INDEX VERSION 1.131+C:\Users\e070773\Desktop\WFT\Java Core\CoreJavaL2\.metadata\.plugins\org.eclipse.jdt.core
2161747041.index
3998666130.index
2994552673.index
2601993053.index
2707737922.index
3960501195.index
3989969404.index
866495595.index
3688233713.index
1607282252.index
2327184759.index
1882347569.index
1394848873.index
1920263784.index
1703361771.index
72535324.index
1996069594.index
2572287236.index
3902607225.index
2677686255.index
146530134.index
1713295793.index
64780496.index
1180489742.index
2857209468.index
1633992518.index
5811390.index
3964918290.index
3173990942.index
35525351.index
1110334383.index
110325333.index
2597661034.index
