1,Product1,5,44.0         
2,Product2,3,77.0         
3,Product3,8,31.0         
4,Product4,44,98.0         
5,Product5,21,76.0         
6,Product6,4,42.0         
7,Product7,0,11.0
8,Prod8,11,563.0
9,Prod9,33,79516.0
10,ProdDEZ,2,365.98
11,PrdoOnze,3,8.0
